545. asynchronous — Nothin'
…
719.4 dx_pre=”dx”#

print(injury)

> print(injury)
# A tibble: 100,477 × 11
   dx1      dx2      dx3      dx4      dx5      dx6      dx7      dx8      dx9      dx10      died
   <chr>    <chr>    <chr>    <chr>    <chr>    <chr>    <chr>    <chr>    <chr>    <chr>    <int>
 1 S72.342A NA       NA       NA       NA       NA       NA       NA       NA       NA           0
 2 S05.22XA NA       NA       NA       NA       NA       NA       NA       NA       NA           0
 3 S00.01XA S00.03XA S00.11XA S00.12XA S00.33XA S00.531A S00.83XA S01.511A S02.5XXA S80.11XA     0
 4 S21.119A NA       NA       NA       NA       NA       NA       NA       NA       NA           0
 5 S82.191A NA       NA       NA       NA       NA       NA       NA       NA       NA           0
 6 S22.42XA NA       NA       NA       NA       NA       NA       NA       NA       NA           0
 7 S92.052A S92.065A S92.325A S92.335A S92.345A S93.336A NA       NA       NA       NA           0
 8 S02.112A S06.5X0A S12.090A S12.100A S12.600A S20.211A S20.212A S22.010A S22.020A S22.038A     0
 9 S00.03XA S22.058A S22.068A S22.078A S22.41XA S30.1XXA S42.102A S62.647A S81.812A S82.202A     0
10 S61.411A S62.624B S62.626B S66.300A S66.302A S66.324A S66.326A NA       NA       NA           0
# ℹ 100,467 more rows
# ℹ Use `print(n = ...)` to see more rows
…
